module gitlab.com/p-tech-blog/p-tech-blog-golang-api/p-tech-blog-golang-api

go 1.13

require (
	github.com/dgrijalva/jwt-go v3.2.0+incompatible
	github.com/gin-gonic/gin v1.6.3
	github.com/jinzhu/gorm v1.9.15
	golang.org/x/crypto v0.0.0-20200728195943-123391ffb6de
)
